^C:\USERS\JENS\DOCUMENTS\VISUAL STUDIO 2013\PROJECTS\NBODY\NBODY\GRAPHICS_CUDA.C
/c /I"C:\Users\jens\documents\visual studio 2013\Projects\nbody\packages\nupengl.core.0.0.0.1\build\native\../..//build/native/include/" /I"C:\Users\jens\documents\visual studio 2013\Projects\nbody\packages\glew.1.9.0.1\build\native\../..//build/native/include/" /I"C:\Users\jens\documents\visual studio 2013\Projects\nbody\packages\freeglut.2.8.1.15\build\native\../..//build/native/include/" /I"C:\Program Files\NVIDIA GPU Computing Toolkit\CUDA\v7.0\include" /ZI /nologo /W3 /WX- /Od /Oy- /D HAS_GLEW /D HAS_FREEGLUT /D WIN32 /D _DEBUG /D _CONSOLE /D _MBCS /Gm /EHsc /RTC1 /MDd /GS /fp:precise /Zc:wchar_t /Zc:forScope /Fo"DEBUG\\" /Fd"DEBUG\VC120.PDB" /Gd /TC /analyze- C:\USERS\JENS\DOCUMENTS\VISUAL STUDIO 2013\PROJECTS\NBODY\NBODY\GRAPHICS_CUDA.C
^C:\USERS\JENS\DOCUMENTS\VISUAL STUDIO 2013\PROJECTS\NBODY\NBODY\SOURCE.C
/c /I"C:\Users\jens\documents\visual studio 2013\Projects\nbody\packages\nupengl.core.0.0.0.1\build\native\../..//build/native/include/" /I"C:\Users\jens\documents\visual studio 2013\Projects\nbody\packages\glew.1.9.0.1\build\native\../..//build/native/include/" /I"C:\Users\jens\documents\visual studio 2013\Projects\nbody\packages\freeglut.2.8.1.15\build\native\../..//build/native/include/" /I"C:\Program Files\NVIDIA GPU Computing Toolkit\CUDA\v7.0\include" /ZI /nologo /W3 /WX- /Od /Oy- /D HAS_GLEW /D HAS_FREEGLUT /D WIN32 /D _DEBUG /D _CONSOLE /D _MBCS /Gm /EHsc /RTC1 /MDd /GS /fp:precise /Zc:wchar_t /Zc:forScope /Fo"DEBUG\\" /Fd"DEBUG\VC120.PDB" /Gd /TC /analyze- C:\USERS\JENS\DOCUMENTS\VISUAL STUDIO 2013\PROJECTS\NBODY\NBODY\SOURCE.C
^C:\USERS\JENS\DOCUMENTS\VISUAL STUDIO 2013\PROJECTS\NBODY\NBODY\TEST.CPP
/c /I"C:\Users\jens\documents\visual studio 2013\Projects\nbody\packages\nupengl.core.0.0.0.1\build\native\../..//build/native/include/" /I"C:\Users\jens\documents\visual studio 2013\Projects\nbody\packages\glew.1.9.0.1\build\native\../..//build/native/include/" /I"C:\Users\jens\documents\visual studio 2013\Projects\nbody\packages\freeglut.2.8.1.15\build\native\../..//build/native/include/" /I"C:\Program Files\NVIDIA GPU Computing Toolkit\CUDA\v7.0\include" /ZI /nologo /W3 /WX- /Od /Oy- /D HAS_GLEW /D HAS_FREEGLUT /D WIN32 /D _DEBUG /D _CONSOLE /D _MBCS /Gm /EHsc /RTC1 /MDd /GS /fp:precise /Zc:wchar_t /Zc:forScope /Fo"DEBUG\\" /Fd"DEBUG\VC120.PDB" /Gd /TP /analyze- C:\USERS\JENS\DOCUMENTS\VISUAL STUDIO 2013\PROJECTS\NBODY\NBODY\TEST.CPP
^C:\USERS\JENS\DOCUMENTS\VISUAL STUDIO 2013\PROJECTS\NBODY\NBODY\GRAPHICS_CUDA.CPP
/c /I"C:\Users\jens\Documents\Visual Studio 2013\Projects\nbody\packages\nupengl.core.0.0.0.1\build\native\../..//build/native/include/" /I"C:\Users\jens\Documents\Visual Studio 2013\Projects\nbody\packages\glew.1.9.0.1\build\native\../..//build/native/include/" /I"C:\Users\jens\Documents\Visual Studio 2013\Projects\nbody\packages\freeglut.2.8.1.15\build\native\../..//build/native/include/" /I"C:\Program Files\NVIDIA GPU Computing Toolkit\CUDA\v7.0\include" /ZI /nologo /W3 /WX- /Od /Oy- /D HAS_GLEW /D HAS_FREEGLUT /D WIN32 /D _DEBUG /D _CONSOLE /D _MBCS /Gm /EHsc /RTC1 /MDd /GS /fp:precise /Zc:wchar_t /Zc:forScope /Fo"DEBUG\\" /Fd"DEBUG\VC120.PDB" /Gd /TP /analyze- C:\USERS\JENS\DOCUMENTS\VISUAL STUDIO 2013\PROJECTS\NBODY\NBODY\GRAPHICS_CUDA.CPP
^C:\USERS\JENS\DOCUMENTS\VISUAL STUDIO 2013\PROJECTS\NBODY\NBODY\MAIN.CPP
/c /I"C:\Users\jens\Documents\Visual Studio 2013\Projects\nbody\packages\nupengl.core.0.0.0.1\build\native\../..//build/native/include/" /I"C:\Users\jens\Documents\Visual Studio 2013\Projects\nbody\packages\glew.1.9.0.1\build\native\../..//build/native/include/" /I"C:\Users\jens\Documents\Visual Studio 2013\Projects\nbody\packages\freeglut.2.8.1.15\build\native\../..//build/native/include/" /I"C:\Program Files\NVIDIA GPU Computing Toolkit\CUDA\v7.0\include" /ZI /nologo /W3 /WX- /Od /Oy- /D HAS_GLEW /D HAS_FREEGLUT /D WIN32 /D _DEBUG /D _CONSOLE /D _MBCS /Gm /EHsc /RTC1 /MDd /GS /fp:precise /Zc:wchar_t /Zc:forScope /Fo"DEBUG\\" /Fd"DEBUG\VC120.PDB" /Gd /TP /analyze- C:\USERS\JENS\DOCUMENTS\VISUAL STUDIO 2013\PROJECTS\NBODY\NBODY\MAIN.CPP
^C:\USERS\JENS\DOCUMENTS\VISUAL STUDIO 2013\PROJECTS\NBODY - 1000 MASSPOINTS UNOPTIMIZED\NBODY\GRAPHICS_CUDA.CPP
/c /I"C:\Users\jens\Documents\Visual Studio 2013\Projects\nbody - 1000 masspoints unoptimized\packages\nupengl.core.0.0.0.1\build\native\../..//build/native/include/" /I"C:\Users\jens\Documents\Visual Studio 2013\Projects\nbody - 1000 masspoints unoptimized\packages\glew.1.9.0.1\build\native\../..//build/native/include/" /I"C:\Users\jens\Documents\Visual Studio 2013\Projects\nbody - 1000 masspoints unoptimized\packages\freeglut.2.8.1.15\build\native\../..//build/native/include/" /I"C:\Program Files\NVIDIA GPU Computing Toolkit\CUDA\v7.0\include" /ZI /nologo /W3 /WX- /Od /Oy- /D HAS_GLEW /D HAS_FREEGLUT /D WIN32 /D _DEBUG /D _CONSOLE /D _MBCS /Gm /EHsc /RTC1 /MDd /GS /fp:precise /Zc:wchar_t /Zc:forScope /Fo"DEBUG\\" /Fd"DEBUG\VC120.PDB" /Gd /TP /analyze- C:\USERS\JENS\DOCUMENTS\VISUAL STUDIO 2013\PROJECTS\NBODY - 1000 MASSPOINTS UNOPTIMIZED\NBODY\GRAPHICS_CUDA.CPP
^C:\USERS\JENS\DOCUMENTS\VISUAL STUDIO 2013\PROJECTS\NBODY - 1000 MASSPOINTS UNOPTIMIZED\NBODY\MAIN.CPP
/c /I"C:\Users\jens\Documents\Visual Studio 2013\Projects\nbody - 1000 masspoints unoptimized\packages\nupengl.core.0.0.0.1\build\native\../..//build/native/include/" /I"C:\Users\jens\Documents\Visual Studio 2013\Projects\nbody - 1000 masspoints unoptimized\packages\glew.1.9.0.1\build\native\../..//build/native/include/" /I"C:\Users\jens\Documents\Visual Studio 2013\Projects\nbody - 1000 masspoints unoptimized\packages\freeglut.2.8.1.15\build\native\../..//build/native/include/" /I"C:\Program Files\NVIDIA GPU Computing Toolkit\CUDA\v7.0\include" /ZI /nologo /W3 /WX- /Od /Oy- /D HAS_GLEW /D HAS_FREEGLUT /D WIN32 /D _DEBUG /D _CONSOLE /D _MBCS /Gm /EHsc /RTC1 /MDd /GS /fp:precise /Zc:wchar_t /Zc:forScope /Fo"DEBUG\\" /Fd"DEBUG\VC120.PDB" /Gd /TP /analyze- C:\USERS\JENS\DOCUMENTS\VISUAL STUDIO 2013\PROJECTS\NBODY - 1000 MASSPOINTS UNOPTIMIZED\NBODY\MAIN.CPP
