^C:\USERS\JENS\DOCUMENTS\VISUAL STUDIO 2013\PROJECTS\NBODY\NBODY\DEBUG\GRAPHICS_CUDA.OBJ|C:\USERS\JENS\DOCUMENTS\VISUAL STUDIO 2013\PROJECTS\NBODY\NBODY\DEBUG\MAIN.OBJ|C:\USERS\JENS\DOCUMENTS\VISUAL STUDIO 2013\PROJECTS\NBODY\NBODY\DEBUG\NAIVE_KERNEL.CU.OBJ
C:\USERS\JENS\DOCUMENTS\VISUAL STUDIO 2013\PROJECTS\NBODY\PACKAGES\NUPENGL.CORE.0.0.0.1\BUILD\NATIVE\LIB\WIN32\V120\GLEW32.LIB
C:\USERS\JENS\DOCUMENTS\VISUAL STUDIO 2013\PROJECTS\NBODY\PACKAGES\NUPENGL.CORE.0.0.0.1\BUILD\NATIVE\LIB\WIN32\V120\GLFW3DLL.LIB
C:\USERS\JENS\DOCUMENTS\VISUAL STUDIO 2013\PROJECTS\NBODY\PACKAGES\NUPENGL.CORE.0.0.0.1\BUILD\NATIVE\LIB\WIN32\V120\FREEGLUT.LIB
C:\PROGRAM FILES\NVIDIA GPU COMPUTING TOOLKIT\CUDA\V7.0\LIB\WIN32\CUDART.LIB
C:\PROGRAM FILES (X86)\WINDOWS KITS\8.1\LIB\WINV6.3\UM\X86\KERNEL32.LIB
C:\PROGRAM FILES (X86)\WINDOWS KITS\8.1\LIB\WINV6.3\UM\X86\USER32.LIB
C:\PROGRAM FILES (X86)\WINDOWS KITS\8.1\LIB\WINV6.3\UM\X86\GDI32.LIB
C:\PROGRAM FILES (X86)\WINDOWS KITS\8.1\LIB\WINV6.3\UM\X86\WINSPOOL.LIB
C:\PROGRAM FILES (X86)\WINDOWS KITS\8.1\LIB\WINV6.3\UM\X86\COMDLG32.LIB
C:\PROGRAM FILES (X86)\WINDOWS KITS\8.1\LIB\WINV6.3\UM\X86\ADVAPI32.LIB
C:\PROGRAM FILES (X86)\WINDOWS KITS\8.1\LIB\WINV6.3\UM\X86\SHELL32.LIB
C:\PROGRAM FILES (X86)\WINDOWS KITS\8.1\LIB\WINV6.3\UM\X86\OLE32.LIB
C:\PROGRAM FILES (X86)\WINDOWS KITS\8.1\LIB\WINV6.3\UM\X86\OLEAUT32.LIB
C:\PROGRAM FILES (X86)\WINDOWS KITS\8.1\LIB\WINV6.3\UM\X86\UUID.LIB
C:\PROGRAM FILES (X86)\WINDOWS KITS\8.1\LIB\WINV6.3\UM\X86\ODBC32.LIB
C:\PROGRAM FILES (X86)\WINDOWS KITS\8.1\LIB\WINV6.3\UM\X86\ODBCCP32.LIB
C:\USERS\JENS\DOCUMENTS\VISUAL STUDIO 2013\PROJECTS\NBODY\NBODY\GLEW32.LIB
C:\USERS\JENS\DOCUMENTS\VISUAL STUDIO 2013\PROJECTS\NBODY\NBODY\DEBUG\NAIVE_KERNEL.CU.OBJ
C:\USERS\JENS\DOCUMENTS\VISUAL STUDIO 2013\PROJECTS\NBODY\NBODY\DEBUG\GRAPHICS_CUDA.OBJ
C:\USERS\JENS\DOCUMENTS\VISUAL STUDIO 2013\PROJECTS\NBODY\NBODY\DEBUG\MAIN.OBJ
C:\WINDOWS\GLOBALIZATION\SORTING\SORTDEFAULT.NLS
C:\PROGRAM FILES (X86)\MICROSOFT VISUAL STUDIO 12.0\VC\BIN\1033\LINKUI.DLL
C:\PROGRAM FILES (X86)\MICROSOFT VISUAL STUDIO 12.0\VC\LIB\MSVCPRTD.LIB
C:\PROGRAM FILES (X86)\MICROSOFT VISUAL STUDIO 12.0\VC\LIB\MSVCRTD.LIB
C:\PROGRAM FILES (X86)\MICROSOFT VISUAL STUDIO 12.0\VC\LIB\OLDNAMES.LIB
C:\PROGRAM FILES (X86)\WINDOWS KITS\8.1\LIB\WINV6.3\UM\X86\GLU32.LIB
C:\PROGRAM FILES (X86)\WINDOWS KITS\8.1\LIB\WINV6.3\UM\X86\OPENGL32.LIB
C:\PROGRAM FILES (X86)\WINDOWS KITS\8.1\LIB\WINV6.3\UM\X86\WINMM.LIB
C:\PROGRAM FILES (X86)\WINDOWS KITS\8.1\BIN\X86\RC.EXE
C:\PROGRAM FILES (X86)\MICROSOFT VISUAL STUDIO 12.0\VC\BIN\CVTRES.EXE
C:\WINDOWS\SYSTEM32\TZRES.DLL
C:\WINDOWS\SYSTEM32\RSAENH.DLL
^C:\USERS\JENS\DOCUMENTS\VISUAL STUDIO 2013\PROJECTS\NBODY - 1000 MASSPOINTS UNOPTIMIZED\NBODY\DEBUG\GRAPHICS_CUDA.OBJ|C:\USERS\JENS\DOCUMENTS\VISUAL STUDIO 2013\PROJECTS\NBODY - 1000 MASSPOINTS UNOPTIMIZED\NBODY\DEBUG\MAIN.OBJ|C:\USERS\JENS\DOCUMENTS\VISUAL STUDIO 2013\PROJECTS\NBODY - 1000 MASSPOINTS UNOPTIMIZED\NBODY\DEBUG\NAIVE_KERNEL.CU.OBJ
C:\USERS\JENS\DOCUMENTS\VISUAL STUDIO 2013\PROJECTS\NBODY - 1000 MASSPOINTS UNOPTIMIZED\PACKAGES\NUPENGL.CORE.0.0.0.1\BUILD\NATIVE\LIB\WIN32\V120\GLEW32.LIB
C:\USERS\JENS\DOCUMENTS\VISUAL STUDIO 2013\PROJECTS\NBODY - 1000 MASSPOINTS UNOPTIMIZED\PACKAGES\NUPENGL.CORE.0.0.0.1\BUILD\NATIVE\LIB\WIN32\V120\GLFW3DLL.LIB
C:\USERS\JENS\DOCUMENTS\VISUAL STUDIO 2013\PROJECTS\NBODY - 1000 MASSPOINTS UNOPTIMIZED\PACKAGES\NUPENGL.CORE.0.0.0.1\BUILD\NATIVE\LIB\WIN32\V120\FREEGLUT.LIB
C:\PROGRAM FILES\NVIDIA GPU COMPUTING TOOLKIT\CUDA\V7.0\LIB\WIN32\CUDART.LIB
C:\PROGRAM FILES (X86)\WINDOWS KITS\8.1\LIB\WINV6.3\UM\X86\KERNEL32.LIB
C:\PROGRAM FILES (X86)\WINDOWS KITS\8.1\LIB\WINV6.3\UM\X86\USER32.LIB
C:\PROGRAM FILES (X86)\WINDOWS KITS\8.1\LIB\WINV6.3\UM\X86\GDI32.LIB
C:\PROGRAM FILES (X86)\WINDOWS KITS\8.1\LIB\WINV6.3\UM\X86\WINSPOOL.LIB
C:\PROGRAM FILES (X86)\WINDOWS KITS\8.1\LIB\WINV6.3\UM\X86\COMDLG32.LIB
C:\PROGRAM FILES (X86)\WINDOWS KITS\8.1\LIB\WINV6.3\UM\X86\ADVAPI32.LIB
C:\PROGRAM FILES (X86)\WINDOWS KITS\8.1\LIB\WINV6.3\UM\X86\SHELL32.LIB
C:\PROGRAM FILES (X86)\WINDOWS KITS\8.1\LIB\WINV6.3\UM\X86\OLE32.LIB
C:\PROGRAM FILES (X86)\WINDOWS KITS\8.1\LIB\WINV6.3\UM\X86\OLEAUT32.LIB
C:\PROGRAM FILES (X86)\WINDOWS KITS\8.1\LIB\WINV6.3\UM\X86\UUID.LIB
C:\PROGRAM FILES (X86)\WINDOWS KITS\8.1\LIB\WINV6.3\UM\X86\ODBC32.LIB
C:\PROGRAM FILES (X86)\WINDOWS KITS\8.1\LIB\WINV6.3\UM\X86\ODBCCP32.LIB
C:\USERS\JENS\DOCUMENTS\VISUAL STUDIO 2013\PROJECTS\NBODY - 1000 MASSPOINTS UNOPTIMIZED\NBODY\GLEW32.LIB
C:\USERS\JENS\DOCUMENTS\VISUAL STUDIO 2013\PROJECTS\NBODY - 1000 MASSPOINTS UNOPTIMIZED\NBODY\DEBUG\NAIVE_KERNEL.CU.OBJ
C:\USERS\JENS\DOCUMENTS\VISUAL STUDIO 2013\PROJECTS\NBODY - 1000 MASSPOINTS UNOPTIMIZED\NBODY\DEBUG\GRAPHICS_CUDA.OBJ
C:\USERS\JENS\DOCUMENTS\VISUAL STUDIO 2013\PROJECTS\NBODY - 1000 MASSPOINTS UNOPTIMIZED\NBODY\DEBUG\MAIN.OBJ
C:\WINDOWS\GLOBALIZATION\SORTING\SORTDEFAULT.NLS
C:\PROGRAM FILES (X86)\MICROSOFT VISUAL STUDIO 12.0\VC\BIN\1033\LINKUI.DLL
C:\PROGRAM FILES (X86)\MICROSOFT VISUAL STUDIO 12.0\VC\LIB\MSVCPRTD.LIB
C:\PROGRAM FILES (X86)\MICROSOFT VISUAL STUDIO 12.0\VC\LIB\MSVCRTD.LIB
C:\PROGRAM FILES (X86)\MICROSOFT VISUAL STUDIO 12.0\VC\LIB\OLDNAMES.LIB
C:\PROGRAM FILES (X86)\WINDOWS KITS\8.1\LIB\WINV6.3\UM\X86\GLU32.LIB
C:\PROGRAM FILES (X86)\WINDOWS KITS\8.1\LIB\WINV6.3\UM\X86\OPENGL32.LIB
C:\PROGRAM FILES (X86)\WINDOWS KITS\8.1\LIB\WINV6.3\UM\X86\WINMM.LIB
C:\PROGRAM FILES (X86)\WINDOWS KITS\8.1\BIN\X86\RC.EXE
C:\PROGRAM FILES (X86)\MICROSOFT VISUAL STUDIO 12.0\VC\BIN\CVTRES.EXE
C:\WINDOWS\SYSTEM32\TZRES.DLL
C:\WINDOWS\SYSTEM32\RSAENH.DLL
