^C:\USERS\JENS\DOCUMENTS\VISUAL STUDIO 2013\PROJECTS\NBODY\NBODY\GRAPHICS_CUDA.C
C:\USERS\JENS\DOCUMENTS\VISUAL STUDIO 2013\PROJECTS\NBODY\NBODY\DEBUG\VC120.PDB
C:\USERS\JENS\DOCUMENTS\VISUAL STUDIO 2013\PROJECTS\NBODY\NBODY\DEBUG\VC120.IDB
C:\USERS\JENS\DOCUMENTS\VISUAL STUDIO 2013\PROJECTS\NBODY\NBODY\DEBUG\GRAPHICS_CUDA.OBJ
^C:\USERS\JENS\DOCUMENTS\VISUAL STUDIO 2013\PROJECTS\NBODY\NBODY\SOURCE.C
C:\USERS\JENS\DOCUMENTS\VISUAL STUDIO 2013\PROJECTS\NBODY\NBODY\DEBUG\VC120.PDB
C:\USERS\JENS\DOCUMENTS\VISUAL STUDIO 2013\PROJECTS\NBODY\NBODY\DEBUG\VC120.IDB
C:\USERS\JENS\DOCUMENTS\VISUAL STUDIO 2013\PROJECTS\NBODY\NBODY\DEBUG\SOURCE.OBJ
^C:\USERS\JENS\DOCUMENTS\VISUAL STUDIO 2013\PROJECTS\NBODY\NBODY\TEST.CPP
C:\USERS\JENS\DOCUMENTS\VISUAL STUDIO 2013\PROJECTS\NBODY\NBODY\DEBUG\VC120.PDB
C:\USERS\JENS\DOCUMENTS\VISUAL STUDIO 2013\PROJECTS\NBODY\NBODY\DEBUG\VC120.IDB
C:\USERS\JENS\DOCUMENTS\VISUAL STUDIO 2013\PROJECTS\NBODY\NBODY\DEBUG\TEST.OBJ
^C:\USERS\JENS\DOCUMENTS\VISUAL STUDIO 2013\PROJECTS\NBODY\NBODY\GRAPHICS_CUDA.CPP
C:\USERS\JENS\DOCUMENTS\VISUAL STUDIO 2013\PROJECTS\NBODY\NBODY\DEBUG\VC120.PDB
C:\USERS\JENS\DOCUMENTS\VISUAL STUDIO 2013\PROJECTS\NBODY\NBODY\DEBUG\VC120.IDB
C:\USERS\JENS\DOCUMENTS\VISUAL STUDIO 2013\PROJECTS\NBODY\NBODY\DEBUG\GRAPHICS_CUDA.OBJ
^C:\USERS\JENS\DOCUMENTS\VISUAL STUDIO 2013\PROJECTS\NBODY\NBODY\GRAPHICS_CUDA.CPP|C:\USERS\JENS\DOCUMENTS\VISUAL STUDIO 2013\PROJECTS\NBODY\NBODY\MAIN.CPP
C:\USERS\JENS\DOCUMENTS\VISUAL STUDIO 2013\PROJECTS\NBODY\NBODY\DEBUG\VC120.PDB
C:\USERS\JENS\DOCUMENTS\VISUAL STUDIO 2013\PROJECTS\NBODY\NBODY\DEBUG\VC120.IDB
C:\USERS\JENS\DOCUMENTS\VISUAL STUDIO 2013\PROJECTS\NBODY\NBODY\DEBUG\MAIN.OBJ
C:\USERS\JENS\DOCUMENTS\VISUAL STUDIO 2013\PROJECTS\NBODY\NBODY\DEBUG\GRAPHICS_CUDA.OBJ
^C:\USERS\JENS\DOCUMENTS\VISUAL STUDIO 2013\PROJECTS\NBODY\NBODY\MAIN.CPP
C:\USERS\JENS\DOCUMENTS\VISUAL STUDIO 2013\PROJECTS\NBODY\NBODY\DEBUG\VC120.PDB
C:\USERS\JENS\DOCUMENTS\VISUAL STUDIO 2013\PROJECTS\NBODY\NBODY\DEBUG\VC120.IDB
C:\USERS\JENS\DOCUMENTS\VISUAL STUDIO 2013\PROJECTS\NBODY\NBODY\DEBUG\MAIN.OBJ
^C:\USERS\JENS\DOCUMENTS\VISUAL STUDIO 2013\PROJECTS\NBODY - 1000 MASSPOINTS OPTIMIZED\NBODY\GRAPHICS_CUDA.CPP|C:\USERS\JENS\DOCUMENTS\VISUAL STUDIO 2013\PROJECTS\NBODY - 1000 MASSPOINTS OPTIMIZED\NBODY\MAIN.CPP
C:\USERS\JENS\DOCUMENTS\VISUAL STUDIO 2013\PROJECTS\NBODY - 1000 MASSPOINTS OPTIMIZED\NBODY\DEBUG\VC120.PDB
C:\USERS\JENS\DOCUMENTS\VISUAL STUDIO 2013\PROJECTS\NBODY - 1000 MASSPOINTS OPTIMIZED\NBODY\DEBUG\VC120.IDB
C:\USERS\JENS\DOCUMENTS\VISUAL STUDIO 2013\PROJECTS\NBODY - 1000 MASSPOINTS OPTIMIZED\NBODY\DEBUG\GRAPHICS_CUDA.OBJ
C:\USERS\JENS\DOCUMENTS\VISUAL STUDIO 2013\PROJECTS\NBODY - 1000 MASSPOINTS OPTIMIZED\NBODY\DEBUG\MAIN.OBJ
^C:\USERS\JENS\DOCUMENTS\VISUAL STUDIO 2013\PROJECTS\NBODY - 1000 MASSPOINTS OPTIMIZED\NBODY\GRAPHICS_CUDA.CPP
C:\USERS\JENS\DOCUMENTS\VISUAL STUDIO 2013\PROJECTS\NBODY - 1000 MASSPOINTS OPTIMIZED\NBODY\DEBUG\VC120.PDB
C:\USERS\JENS\DOCUMENTS\VISUAL STUDIO 2013\PROJECTS\NBODY - 1000 MASSPOINTS OPTIMIZED\NBODY\DEBUG\VC120.IDB
C:\USERS\JENS\DOCUMENTS\VISUAL STUDIO 2013\PROJECTS\NBODY - 1000 MASSPOINTS OPTIMIZED\NBODY\DEBUG\GRAPHICS_CUDA.OBJ
^C:\USERS\JENS\DOCUMENTS\VISUAL STUDIO 2013\PROJECTS\NBODY - 1000 MASSPOINTS OPTIMIZED\NBODY\MAIN.CPP
C:\USERS\JENS\DOCUMENTS\VISUAL STUDIO 2013\PROJECTS\NBODY - 1000 MASSPOINTS OPTIMIZED\NBODY\DEBUG\VC120.PDB
